%YAML 1.1
%TAG !u! tag:unity3d.com,2011:
--- !u!114 &11400000
MonoBehaviour:
  m_ObjectHideFlags: 0
  m_CorrespondingSourceObject: {fileID: 0}
  m_PrefabInstance: {fileID: 0}
  m_PrefabAsset: {fileID: 0}
  m_GameObject: {fileID: 0}
  m_Enabled: 1
  m_EditorHideFlags: 0
  m_Script: {fileID: 11500000, guid: 78b2425a2284af743826c689403a4924, type: 3}
  m_Name: PWSF Square Mask
  m_EditorClassIdentifier: 
  m_functionInfo: "// Made with Amplify Shader Editor\n// Available at the Unity Asset
    Store - http://u3d.as/y3X \n/*ASEBEGIN\nVersion=17107\n258;516;1718;717;585.8033;639.8658;1.607577;True;False\nNode;AmplifyShaderEditor.FractNode;44;522.3746,-266.6017;Inherit;False;1;0;FLOAT;0;False;1;FLOAT;0\nNode;AmplifyShaderEditor.StepOpNode;51;812.2048,-77.84172;Inherit;False;2;0;FLOAT;0;False;1;FLOAT;0;False;1;FLOAT;0\nNode;AmplifyShaderEditor.FunctionInput;57;512,-192;Inherit;False;Top;1;1;False;1;0;FLOAT;0;False;1;FLOAT;0\nNode;AmplifyShaderEditor.StepOpNode;52;813.8958,-263.7067;Inherit;False;2;0;FLOAT;0;False;1;FLOAT;0;False;1;FLOAT;0\nNode;AmplifyShaderEditor.FractNode;45;523.0298,-356.6956;Inherit;False;1;0;FLOAT;0;False;1;FLOAT;0\nNode;AmplifyShaderEditor.OneMinusNode;46;655.5779,-354.8536;Inherit;False;1;0;FLOAT;0;False;1;FLOAT;0\nNode;AmplifyShaderEditor.OneMinusNode;48;654.1541,-263.9496;Inherit;False;1;0;FLOAT;0;False;1;FLOAT;0\nNode;AmplifyShaderEditor.StepOpNode;49;813.1272,-358.4806;Inherit;False;2;0;FLOAT;0;False;1;FLOAT;0;False;1;FLOAT;0\nNode;AmplifyShaderEditor.StepOpNode;50;811.6467,-170.6617;Inherit;False;2;0;FLOAT;0;False;1;FLOAT;0;False;1;FLOAT;0\nNode;AmplifyShaderEditor.SimpleAddOpNode;53;973.5022,-243.7147;Inherit;False;4;4;0;FLOAT;0;False;1;FLOAT;0;False;2;FLOAT;0;False;3;FLOAT;0;False;1;FLOAT;0\nNode;AmplifyShaderEditor.OneMinusNode;64;1266.887,-171.6808;Inherit;False;1;0;FLOAT;0;False;1;FLOAT;0\nNode;AmplifyShaderEditor.FunctionInput;62;512,48;Inherit;False;Left;1;4;False;1;0;FLOAT;0;False;1;FLOAT;0\nNode;AmplifyShaderEditor.BreakToComponentsNode;56;252.5069,-352.2726;Inherit;False;FLOAT2;1;0;FLOAT2;0,0;False;16;FLOAT;0;FLOAT;1;FLOAT;2;FLOAT;3;FLOAT;4;FLOAT;5;FLOAT;6;FLOAT;7;FLOAT;8;FLOAT;9;FLOAT;10;FLOAT;11;FLOAT;12;FLOAT;13;FLOAT;14;FLOAT;15\nNode;AmplifyShaderEditor.SaturateNode;54;1107.084,-241.8617;Inherit;False;1;0;FLOAT;0;False;1;FLOAT;0\nNode;AmplifyShaderEditor.TextureCoordinatesNode;55;-165.3593,-351.6952;Inherit;False;0;-1;2;3;2;SAMPLER2D;;False;0;FLOAT2;1,1;False;1;FLOAT2;0,0;False;5;FLOAT2;0;FLOAT;1;FLOAT;2;FLOAT;3;FLOAT;4\nNode;AmplifyShaderEditor.FunctionInput;25;85.60358,-356.4947;Inherit;False;UV;2;0;False;1;0;FLOAT2;32,0;False;1;FLOAT2;0\nNode;AmplifyShaderEditor.FunctionInput;60;512,-112;Inherit;False;Right;1;2;False;1;0;FLOAT;0;False;1;FLOAT;0\nNode;AmplifyShaderEditor.FunctionInput;61;512,-32;Inherit;False;Bottom;1;3;False;1;0;FLOAT;0;False;1;FLOAT;0\nNode;AmplifyShaderEditor.FunctionOutput;0;1263.538,-242.5023;Inherit;False;True;Output;0;False;1;0;FLOAT;0;False;1;FLOAT;0\nNode;AmplifyShaderEditor.FunctionOutput;65;1437.496,-171.4102;Inherit;False;False;One
    Minus Output;1;False;1;0;FLOAT;0;False;1;FLOAT;0\nWireConnection;44;0;56;0\nWireConnection;51;0;44;0\nWireConnection;51;1;62;0\nWireConnection;52;0;48;0\nWireConnection;52;1;60;0\nWireConnection;45;0;56;1\nWireConnection;46;0;45;0\nWireConnection;48;0;44;0\nWireConnection;49;0;46;0\nWireConnection;49;1;57;0\nWireConnection;50;0;45;0\nWireConnection;50;1;61;0\nWireConnection;53;0;49;0\nWireConnection;53;1;52;0\nWireConnection;53;2;50;0\nWireConnection;53;3;51;0\nWireConnection;64;0;54;0\nWireConnection;56;0;25;0\nWireConnection;54;0;53;0\nWireConnection;25;0;55;0\nWireConnection;0;0;54;0\nWireConnection;65;0;64;0\nASEEND*/\n//CHKSM=B03853E4E00969233847401BF5F3904A110B96F9"
  m_functionName: 
  m_description: 
  m_additionalIncludes:
    m_additionalIncludes: []
    m_outsideIncludes: []
  m_additionalPragmas:
    m_additionalPragmas: []
    m_outsidePragmas: []
  m_additionalDirectives:
    m_validData: 0
    m_isDirty: 0
    m_moduleName: ' Additional Directives'
    m_independentModule: 1
    m_additionalDirectives: []
    m_shaderFunctionDirectives: []
    m_nativeDirectives: []
    m_nativeDirectivesIndex: -1
    m_nativeDirectivesFoldout: 0
    m_directivesSaveItems: []
  m_nodeCategory: 3
  m_customNodeCategory: 
  m_previewPosition: 0
  m_hidden: 0
